cz/cvut/fel/omo/blog/Post.class
cz/cvut/fel/omo/blog/AdminAccount.class
cz/cvut/fel/omo/blog/Dashboard.class
cz/cvut/fel/omo/blog/Leyman.class
cz/cvut/fel/omo/blog/Comment.class
cz/cvut/fel/omo/blog/User.class
cz/cvut/fel/omo/blog/DisplayableComponent.class
cz/cvut/fel/omo/blog/Topic.class
cz/cvut/fel/omo/blog/Blog.class
cz/cvut/fel/omo/blog/Main.class
cz/cvut/fel/omo/blog/Post$State.class
